{"cinemas":[{"id":44,"mark":0,"nm":"大地影院（奥体高德美居店）","sellPrice":"","addr":"天河区奥体南路12号高德美居家居馆3楼（近天河百货）","distance":"291.2km","tag":{"allowRefund":1,"buyout":0,"cityCardTag":0,"deal":0,"endorse":1,"giftTag":"","hallType":[],"hallTypeVOList":[],"sell":1,"snack":1,"vipTag":"折扣卡"},"promotion":{"cardPromotionTag":"开卡特惠，首单1张最高立减10元","couponPromotionTag":"","merchantActivityTag":"","packShowActivityTag":"","platformActivityTag":"","starActivityTag":""},"showTimes":""},{"id":203,"mark":0,"nm":"平安大戏院","sellPrice":"","addr":"荔湾区十甫路125号（上下九步行街内）","distance":"308.7km","tag":{"allowRefund":1,"buyout":0,"cityCardTag":0,"deal":0,"endorse":1,"giftTag":"","hallType":[],"hallTypeVOList":[],"sell":1,"snack":0,"vipTag":"折扣卡"},"promotion":{"cardPromotionTag":"开卡特惠，首单2张最高立减6元","couponPromotionTag":"","merchantActivityTag":"","packShowActivityTag":"","platformActivityTag":"","starActivityTag":""},"showTimes":""},{"id":2117,"mark":0,"nm":"大地影院（增城东汇城店）","sellPrice":"","addr":"增城区荔城街府佑路98号东汇城4楼","distance":"247.3km","tag":{"allowRefund":1,"buyout":0,"cityCardTag":0,"deal":0,"endorse":1,"giftTag":"","hallType":[],"hallTypeVOList":[],"sell":1,"snack":1,"vipTag":"折扣卡"},"promotion":{"cardPromotionTag":"开卡特惠，首单1张最高立减10元","couponPromotionTag":"","merchantActivityTag":"","packShowActivityTag":"","platformActivityTag":"","starActivityTag":""},"showTimes":""},{"id":1674,"mark":0,"nm":"大地影院（黄埔东区时代城店）","sellPrice":"","addr":"黄埔区荔联街宏明路263号东区时代城4楼","distance":"279.1km","tag":{"allowRefund":1,"buyout":0,"cityCardTag":0,"deal":0,"endorse":1,"giftTag":"","hallType":[],"hallTypeVOList":[],"sell":1,"snack":1,"vipTag":"折扣卡"},"promotion":{"cardPromotionTag":"开卡特惠，首单1张最高立减10元","couponPromotionTag":"","merchantActivityTag":"","packShowActivityTag":"","platformActivityTag":"","starActivityTag":""},"showTimes":""},{"id":1673,"mark":0,"nm":"大地影院（黄埔领好广场店）","sellPrice":"","addr":"黄埔区黄埔东路2889号领好广场五楼大地影院","distance":"281.7km","tag":{"allowRefund":1,"buyout":0,"cityCardTag":0,"deal":0,"endorse":1,"giftTag":"","hallType":[],"hallTypeVOList":[],"sell":1,"snack":1,"vipTag":"折扣卡"},"promotion":{"cardPromotionTag":"开卡特惠，首单1张最高立减10元","couponPromotionTag":"","merchantActivityTag":"","packShowActivityTag":"","platformActivityTag":"","starActivityTag":""},"showTimes":""},{"id":176,"mark":0,"nm":"大地影院（天河员宫店）","sellPrice":"","addr":"天河区员村二横路2号员村工人文化宫内（黄埔大道口）","distance":"296.7km","tag":{"allowRefund":1,"buyout":0,"cityCardTag":0,"deal":0,"endorse":1,"giftTag":"","hallType":[],"hallTypeVOList":[],"sell":1,"snack":1,"vipTag":"折扣卡"},"promotion":{"cardPromotionTag":"开卡特惠，首单1张最高立减10元","couponPromotionTag":"","merchantActivityTag":"","packShowActivityTag":"","platformActivityTag":"","starActivityTag":""},"showTimes":""},{"id":2062,"mark":0,"nm":"中影乐佳影城","sellPrice":"","addr":"天河区天河北路705号曜和广场西3层","distance":"298.2km","tag":{"allowRefund":1,"buyout":0,"cityCardTag":0,"deal":0,"endorse":1,"giftTag":"","hallType":[],"hallTypeVOList":[],"sell":1,"snack":1,"vipTag":"折扣卡"},"promotion":{"cardPromotionTag":"","couponPromotionTag":"","merchantActivityTag":"","packShowActivityTag":"","platformActivityTag":"","starActivityTag":""},"showTimes":""},{"id":2118,"mark":0,"nm":"大地影院（人和华通广场店）","sellPrice":"","addr":"白云区人和镇鹤龙路187号华通广场3楼","distance":"298.8km","tag":{"allowRefund":1,"buyout":0,"cityCardTag":0,"deal":0,"endorse":1,"giftTag":"","hallType":[],"hallTypeVOList":[],"sell":1,"snack":1,"vipTag":"折扣卡"},"promotion":{"cardPromotionTag":"开卡特惠，首单1张最高立减10元","couponPromotionTag":"","merchantActivityTag":"","packShowActivityTag":"","platformActivityTag":"","starActivityTag":""},"showTimes":""},{"id":114,"mark":0,"nm":"大地影院（番禺大石城店）","sellPrice":"","addr":"番禺区朝阳西路31号大石城5楼（近大石医院）","distance":"304.7km","tag":{"allowRefund":1,"buyout":0,"cityCardTag":0,"deal":0,"endorse":1,"giftTag":"","hallType":[],"hallTypeVOList":[],"sell":1,"snack":1,"vipTag":"折扣卡"},"promotion":{"cardPromotionTag":"开卡特惠，首单1张最高立减10元","couponPromotionTag":"","merchantActivityTag":"","packShowActivityTag":"","platformActivityTag":"","starActivityTag":""},"showTimes":""},{"id":112,"mark":0,"nm":"中影火山湖电影城（东山口店）","sellPrice":"","addr":"越秀区农林下路4-6号东山锦轩大厦4-6楼（电车总站对面）","distance":"303.3km","tag":{"allowRefund":1,"buyout":0,"cityCardTag":0,"deal":0,"endorse":1,"giftTag":"","hallType":[],"hallTypeVOList":[],"sell":1,"snack":1,"vipTag":""},"promotion":{"cardPromotionTag":"","couponPromotionTag":"","merchantActivityTag":"","packShowActivityTag":"","platformActivityTag":"","starActivityTag":""},"showTimes":""},{"id":1643,"mark":0,"nm":"中影佰纳飞影电影城（天河店）","sellPrice":"","addr":"天河区东莞庄路富力院士庭2楼（广东农垦总局对面）","distance":"298.6km","tag":{"allowRefund":1,"buyout":0,"cityCardTag":0,"deal":0,"endorse":1,"giftTag":"","hallType":[],"hallTypeVOList":[],"sell":1,"snack":1,"vipTag":"折扣卡"},"promotion":{"cardPromotionTag":"开卡特惠，首单2张最高立减4元","couponPromotionTag":"","merchantActivityTag":"","packShowActivityTag":"","platformActivityTag":"","starActivityTag":""},"showTimes":""},{"id":2505,"mark":0,"nm":"中影国际影城（太阳新天地店）","sellPrice":"","addr":"天河区马场路36号太阳新天地八楼（近中国联通）","distance":"298.5km","tag":{"allowRefund":0,"buyout":0,"cityCardTag":0,"deal":0,"endorse":0,"giftTag":"","hallType":["杜比全景声厅"],"hallTypeVOList":[{"name":"杜比全景声厅","url":""}],"sell":1,"snack":1,"vipTag":"折扣卡"},"promotion":{"cardPromotionTag":"开卡特惠，首单2张最高立减6元","couponPromotionTag":"","merchantActivityTag":"","packShowActivityTag":"","platformActivityTag":"","starActivityTag":""},"showTimes":""},{"id":1644,"mark":0,"nm":"华影梅花园影城","sellPrice":"","addr":"白云区广州大道北28号梅花园商业广场5楼","distance":"299.5km","tag":{"allowRefund":1,"buyout":0,"cityCardTag":0,"deal":0,"endorse":1,"giftTag":"","hallType":["4K厅"],"hallTypeVOList":[{"name":"4K厅","url":""}],"sell":1,"snack":1,"vipTag":"折扣卡"},"promotion":{"cardPromotionTag":"","couponPromotionTag":"","merchantActivityTag":"","packShowActivityTag":"","platformActivityTag":"","starActivityTag":""},"showTimes":""},{"id":2507,"mark":0,"nm":"FUN范影城（喜洋时代洛溪店）","sellPrice":"","addr":"番禺区洛浦街奥林匹克大厦四楼","distance":"304.5km","tag":{"allowRefund":1,"buyout":0,"cityCardTag":0,"deal":0,"endorse":1,"giftTag":"","hallType":[],"hallTypeVOList":[],"sell":1,"snack":1,"vipTag":"折扣卡"},"promotion":{"cardPromotionTag":"开卡特惠，首单2张最高立减4元","couponPromotionTag":"","merchantActivityTag":"","packShowActivityTag":"","platformActivityTag":"","starActivityTag":""},"showTimes":""},{"id":209,"mark":0,"nm":"中华广场电影城","sellPrice":"","addr":"越秀区中山三路33号中华广场8楼（近地王广场）","distance":"304.6km","tag":{"allowRefund":1,"buyout":0,"cityCardTag":0,"deal":0,"endorse":1,"giftTag":"","hallType":["杜比全景声厅","4D厅"],"hallTypeVOList":[{"name":"杜比全景声厅","url":""},{"name":"4D厅","url":""}],"sell":1,"snack":1,"vipTag":"折扣卡"},"promotion":{"cardPromotionTag":"","couponPromotionTag":"","merchantActivityTag":"","packShowActivityTag":"","platformActivityTag":"","starActivityTag":""},"showTimes":""},{"id":85,"mark":0,"nm":"太古仓电影库","sellPrice":"","addr":"海珠区革新路124号太古仓6-7仓","distance":"308.5km","tag":{"allowRefund":1,"buyout":0,"cityCardTag":0,"deal":0,"endorse":1,"giftTag":"","hallType":[],"hallTypeVOList":[],"sell":1,"snack":1,"vipTag":"折扣卡"},"promotion":{"cardPromotionTag":"开卡特惠，首单2张最高立减6元","couponPromotionTag":"","merchantActivityTag":"","packShowActivityTag":"","platformActivityTag":"","starActivityTag":""},"showTimes":""},{"id":204,"mark":0,"nm":"青宫电影城","sellPrice":"","addr":"越秀区北京路312号青年文化宫二楼（近广百百货）","distance":"306km","tag":{"allowRefund":1,"buyout":0,"cityCardTag":0,"deal":0,"endorse":1,"giftTag":"","hallType":["杜比全景声厅"],"hallTypeVOList":[{"name":"杜比全景声厅","url":""}],"sell":1,"snack":1,"vipTag":"折扣卡"},"promotion":{"cardPromotionTag":"开卡特惠，首单2张最高立减4元","couponPromotionTag":"","merchantActivityTag":"","packShowActivityTag":"","platformActivityTag":"","starActivityTag":""},"showTimes":""},{"id":30,"mark":0,"nm":"橙天嘉禾影城（白云店）","sellPrice":"","addr":"白云区机场路云霄街5号停机坪购物广场3楼（近地铁白云公园A出口）","distance":"305km","tag":{"allowRefund":1,"buyout":0,"cityCardTag":0,"deal":0,"endorse":1,"giftTag":"","hallType":[],"hallTypeVOList":[],"sell":1,"snack":1,"vipTag":"折扣卡"},"promotion":{"cardPromotionTag":"开卡特惠，首单1张最高立减10元","couponPromotionTag":"","merchantActivityTag":"","packShowActivityTag":"","platformActivityTag":"","starActivityTag":""},"showTimes":""},{"id":82,"mark":0,"nm":"江高数字影院","sellPrice":"","addr":"白云区江高镇夏花三路江高商业步行街A226-A235号（近KFC）","distance":"306.3km","tag":{"allowRefund":1,"buyout":0,"cityCardTag":0,"deal":0,"endorse":1,"giftTag":"","hallType":[],"hallTypeVOList":[],"sell":1,"snack":1,"vipTag":"折扣卡"},"promotion":{"cardPromotionTag":"开卡特惠，首单2张最高立减6元","couponPromotionTag":"","merchantActivityTag":"","packShowActivityTag":"","platformActivityTag":"","starActivityTag":""},"showTimes":""},{"id":196,"mark":0,"nm":"东圃摩登电影城（东圃大马路店）","sellPrice":"","addr":"天河区东圃大马路14号东圃摩登城3楼（近红十字医院）","distance":"293.1km","tag":{"allowRefund":1,"buyout":0,"cityCardTag":0,"deal":0,"endorse":1,"giftTag":"","hallType":[],"hallTypeVOList":[],"sell":1,"snack":1,"vipTag":"折扣卡"},"promotion":{"cardPromotionTag":"开卡特惠，首单2张最高立减6元","couponPromotionTag":"","merchantActivityTag":"","packShowActivityTag":"","platformActivityTag":"","starActivityTag":""},"showTimes":""}],"ct_pois":[{"ct_poi":"936879945111165696_a44_c0","poiid":655896},{"ct_poi":"936879945111165696_a203_c1","poiid":5508},{"ct_poi":"936879945111165696_a2117_c2","poiid":1573569},{"ct_poi":"936879945111165696_a1674_c3","poiid":2373240},{"ct_poi":"936879945111165696_a1673_c4","poiid":1541535},{"ct_poi":"936879945111165696_a176_c5","poiid":1436408},{"ct_poi":"936879945111165696_a2062_c6","poiid":1465628},{"ct_poi":"936879945111165696_a2118_c7","poiid":1573570},{"ct_poi":"936879945111165696_a114_c8","poiid":638259},{"ct_poi":"936879945111165696_a112_c9","poiid":1482249},{"ct_poi":"936879945111165696_a1643_c10","poiid":1169467},{"ct_poi":"936879945111165696_a2505_c11","poiid":1535757},{"ct_poi":"936879945111165696_a1644_c12","poiid":1416235},{"ct_poi":"936879945111165696_a2507_c13","poiid":1484148},{"ct_poi":"936879945111165696_a209_c14","poiid":623334},{"ct_poi":"936879945111165696_a85_c15","poiid":646006},{"ct_poi":"936879945111165696_a204_c16","poiid":2526090},{"ct_poi":"936879945111165696_a30_c17","poiid":1525695},{"ct_poi":"936879945111165696_a82_c18","poiid":645837},{"ct_poi":"936879945111165696_a196_c19","poiid":2521113}],"paging":{"hasMore":true,"limit":20,"offset":0,"total":278},"resId":"1586700776929"}